{
    "prepare_queue": {
        "installed": [],
        "uninstalled": []
    },
    "config_munge": {
        "files": {}
    },
    "installed_plugins": {
        "cordova-plugin-battery-status": {
            "PACKAGE_NAME": "tv.media"
        },
        "cordova-plugin-camera": {
            "PACKAGE_NAME": "tv.media"
        },
        "cordova-plugin-media-capture": {
            "PACKAGE_NAME": "tv.media"
        },
        "cordova-plugin-device": {
            "PACKAGE_NAME": "tv.media"
        },
        "cordova-plugin-dialogs": {
            "PACKAGE_NAME": "tv.media"
        },
        "cordova-plugin-geolocation": {
            "PACKAGE_NAME": "tv.media"
        },
        "cordova-plugin-globalization": {
            "PACKAGE_NAME": "tv.media"
        },
        "cordova-plugin-inappbrowser": {
            "PACKAGE_NAME": "tv.media"
        },
        "cordova-plugin-network-information": {
            "PACKAGE_NAME": "tv.media"
        },
        "cordova-plugin-vibration": {
            "PACKAGE_NAME": "tv.media"
        }
    },
    "dependent_plugins": {
        "cordova-plugin-compat": {
            "PACKAGE_NAME": "tv.media"
        },
        "cordova-plugin-file": {
            "PACKAGE_NAME": "tv.media"
        }
    }
}